﻿object={
	name="tree_palm_generator_1_0"
	clamp_to_water_level=no
	render_under_water=no
	generated_content=yes
	layer="tree_high_layer"
	pdxmesh="tree_palm_01_a_mesh"
	count=60
	transform="1505.487671 0.000000 1768.446655 0.000000 0.125458 0.000000 -0.992099 0.716162 0.716162 0.716162
1507.833984 0.000000 1764.718872 0.000000 0.606707 0.000000 -0.794926 0.726978 0.726978 0.726978
1508.281982 0.000000 1767.324463 0.000000 0.507639 0.000000 0.861570 0.650643 0.650643 0.650643
1506.578247 0.000000 1766.292725 0.000000 0.719537 0.000000 0.694454 0.652777 0.652777 0.652777
1521.578979 0.000000 1869.028564 0.000000 0.637139 0.000000 -0.770749 0.718455 0.718455 0.718455
1533.090210 0.000000 1891.698730 0.000000 0.117455 0.000000 0.993078 0.691874 0.691874 0.691874
1518.393188 0.000000 1872.877686 0.000000 0.862664 0.000000 0.505777 0.690362 0.690362 0.690362
1533.407349 0.000000 1888.629150 0.000000 0.973982 0.000000 -0.226626 0.707990 0.707990 0.707990
1524.425049 0.000000 1868.826294 0.000000 0.063487 0.000000 -0.997983 0.805363 0.805363 0.805363
1518.909424 0.000000 1870.181641 0.000000 0.681809 0.000000 0.731531 0.664437 0.664437 0.664437
1552.253418 0.000000 1772.936157 0.000000 0.112201 0.000000 0.993686 0.689806 0.689806 0.689806
1573.239502 0.000000 1733.322266 0.000000 0.995146 0.000000 0.098414 0.688286 0.688286 0.688286
1555.586060 0.000000 1775.916016 0.000000 0.215414 0.000000 0.976523 0.662149 0.662149 0.662149
1562.838501 0.000000 1732.125244 0.000000 0.144431 0.000000 -0.989515 0.749836 0.749836 0.749836
1576.481079 0.000000 1732.867554 0.000000 0.924189 0.000000 -0.381934 0.715341 0.715341 0.715341
1555.046387 0.000000 1773.142578 0.000000 0.852912 0.000000 0.522056 0.663141 0.663141 0.663141
1571.218384 0.000000 1733.277222 0.000000 0.570750 0.000000 -0.821124 0.761956 0.761956 0.761956
1605.366211 0.000000 1786.134155 0.000000 0.005898 0.000000 0.999983 0.667183 0.667183 0.667183
1652.256226 0.000000 1752.680664 0.000000 0.303033 0.000000 -0.952980 0.719422 0.719422 0.719422
1611.907959 0.000000 1733.184448 0.000000 0.069222 0.000000 -0.997601 0.735687 0.735687 0.735687
1603.289795 0.000000 1788.879761 0.000000 0.465964 0.000000 0.884803 0.675706 0.675706 0.675706
1675.654663 0.000000 1743.006714 0.000000 0.395513 0.000000 0.918460 0.690234 0.690234 0.690234
1685.861572 0.000000 1772.200928 0.000000 0.944918 0.000000 0.327307 0.682285 0.682285 0.682285
1698.891724 0.000000 1753.187378 0.000000 0.286863 0.000000 0.957972 0.653478 0.653478 0.653478
1713.072021 0.000000 1779.134766 0.000000 0.419818 0.000000 -0.907608 0.730217 0.730217 0.730217
1672.944092 0.000000 1744.776245 0.000000 0.994784 0.000000 0.102000 0.695857 0.695857 0.695857
1686.879150 0.000000 1775.051758 0.000000 0.716858 0.000000 -0.697219 0.722651 0.722651 0.722651
1701.187988 0.000000 1754.116943 0.000000 0.733909 0.000000 -0.679248 0.731320 0.731320 0.731320
1715.074951 0.000000 1779.923584 0.000000 0.967899 0.000000 0.251338 0.677267 0.677267 0.677267
1700.312622 0.000000 1752.331299 0.000000 0.573388 0.000000 0.819284 0.607377 0.607377 0.607377
1573.796387 0.000000 1848.987305 0.000000 0.503562 0.000000 -0.863959 0.713125 0.713125 0.713125
1571.790405 0.000000 1850.759521 0.000000 0.964694 0.000000 0.263374 0.688449 0.688449 0.688449
1616.245605 0.000000 1836.920532 0.000000 0.811159 0.000000 0.584825 0.679914 0.679914 0.679914
1653.324097 0.000000 1821.785400 0.000000 0.637785 0.000000 0.770214 0.671730 0.671730 0.671730
1638.756592 0.000000 1843.951050 0.000000 0.566789 0.000000 0.823863 0.682403 0.682403 0.682403
1622.886963 0.000000 1839.036133 0.000000 0.940593 0.000000 -0.339535 0.720342 0.720342 0.720342
1619.038574 0.000000 1837.126953 0.000000 0.617094 0.000000 0.786889 0.672141 0.672141 0.672141
1662.661377 0.000000 1868.937622 0.000000 0.493314 0.000000 -0.869851 0.742770 0.742770 0.742770
1669.358398 0.000000 1850.118530 0.000000 0.006275 0.000000 0.999980 0.634381 0.634381 0.634381
1664.510742 0.000000 1825.728149 0.000000 0.595764 0.000000 0.803160 0.690873 0.690873 0.690873
1699.319458 0.000000 1802.707397 0.000000 0.985540 0.000000 -0.169443 0.710950 0.710950 0.710950
1666.559204 0.000000 1821.104614 0.000000 0.366733 0.000000 -0.930326 0.730080 0.730080 0.730080
1700.085815 0.000000 1808.112549 0.000000 0.370873 0.000000 -0.928684 0.713319 0.713319 0.713319
1665.096802 0.000000 1848.108521 0.000000 0.318238 0.000000 0.948011 0.672107 0.672107 0.672107
1667.281982 0.000000 1852.864136 0.000000 0.065715 0.000000 -0.997838 0.777853 0.777853 0.777853
1701.386230 0.000000 1805.294800 0.000000 0.961376 0.000000 -0.275239 0.706627 0.706627 0.706627
1706.374146 0.000000 1818.998779 0.000000 0.999993 0.000000 0.003619 0.699828 0.699828 0.699828
1698.614380 0.000000 1805.559814 0.000000 0.727688 0.000000 0.685908 0.663014 0.663014 0.663014
1667.476807 0.000000 1851.166382 0.000000 0.614831 0.000000 -0.788659 0.772408 0.772408 0.772408
1665.298950 0.000000 1871.403320 0.000000 0.681877 0.000000 0.731466 0.685088 0.685088 0.685088
1664.297729 0.000000 1906.663452 0.000000 0.996045 0.000000 -0.088856 0.701990 0.701990 0.701990
1669.157837 0.000000 1879.873291 0.000000 0.645235 0.000000 -0.763984 0.725527 0.725527 0.725527
1668.054321 0.000000 1902.907959 0.000000 0.998464 0.000000 0.055397 0.694653 0.694653 0.694653
1671.963379 0.000000 1889.730225 0.000000 0.867717 0.000000 0.497059 0.681091 0.681091 0.681091
1663.917603 0.000000 1868.034424 0.000000 0.191852 0.000000 -0.981424 0.755859 0.755859 0.755859
1678.204224 0.000000 1857.114868 0.000000 0.971767 0.000000 0.235942 0.690676 0.690676 0.690676
1669.205688 0.000000 1905.840210 0.000000 0.987959 0.000000 -0.154716 0.711510 0.711510 0.711510
1666.763550 0.000000 1906.783691 0.000000 0.999165 0.000000 0.040866 0.698000 0.698000 0.698000
1696.459229 0.000000 1934.934814 0.000000 0.805335 0.000000 -0.592820 0.729276 0.729276 0.729276
1694.508423 0.000000 1933.352417 0.000000 0.760457 0.000000 -0.649388 0.751383 0.751383 0.751383
"}
