d_wexhills = {
	1015.6.7 = {
		holder = 65 #Dyren Wex
	}
}

d_ottocam = {
	1015.6.7 = {
		holder = 65 #Dyren Wex
	}
}

d_bisan = {
	1005.9.2 = {
		holder = 67 #Hargen Bisan
	}
}

d_greater_bardswood = {
	1005.9.2 = {
		holder = 67 #Hargen Bisan
	}
}

d_sugamber = {
	970.3.4 = {
		holder = 66 #Rycroft Sugambic
	}
}

d_gnollsgate = {
	970.3.4 = {
		holder = 66 #Rycroft Sugambic
	}
}