39 = {

    # Misc
    culture = businori
    religion = cult_of_the_dame

    # History
}

362 = {

    # Misc
    culture = businori
    religion = cult_of_the_dame

    # History
}

363 = {

    # Misc
    culture = businori
    religion = cult_of_the_dame

    # History
}

364 = {

    # Misc
    culture = businori
    religion = cult_of_the_dame

    # History
}

365 = {

    # Misc
    culture = businori
    religion = cult_of_the_dame

    # History
}

366 = {

    # Misc
    culture = businori
    religion = cult_of_the_dame

    # History
}

367 = {

    # Misc
    culture = businori
    religion = cult_of_the_dame

    # History
}

368 = {

    # Misc
    culture = businori
    religion = cult_of_the_dame

    # History
}

370 = {

    # Misc
    culture = businori
    religion = cult_of_the_dame

    # History
}

371 = {

    # Misc
    culture = businori
    religion = cult_of_the_dame

    # History
}

372 = {

    # Misc
    culture = businori
    religion = cult_of_the_dame

    # History
}

373 = {

    # Misc
    culture = businori
    religion = cult_of_the_dame

    # History
}

374 = {

    # Misc
    culture = businori
    religion = cult_of_the_dame

    # History
}

375 = {

    # Misc
    culture = vernid
    religion = cult_of_the_dame

    # History
}

377 = {

    # Misc
    culture = vernid
    religion = cult_of_the_dame

    # History
}

378 = {

    # Misc
    culture = businori
    religion = cult_of_the_dame

    # History
}

408 = {

    # Misc
    culture = businori
    religion = cult_of_the_dame

    # History
}

35 = {

    # Misc
    culture = tefori
    religion = cult_of_the_dame

    # History
}

36 = {

    # Misc
    culture = tefori
    religion = cult_of_the_dame

    # History
}

369 = {

    # Misc
    culture = tefori
    religion = cult_of_the_dame

    # History
}

379 = {

    # Misc
    culture = tefori
    religion = cult_of_the_dame

    # History
}

380 = {

    # Misc
    culture = tefori
    religion = cult_of_the_dame

    # History
}