294 = {

    # Misc
    culture = wexonard
    religion = cult_of_the_dame

    # History
}

300 = {

    # Misc
    culture = wexonard
    religion = cult_of_the_dame

    # History
}

332 = {

    # Misc
    culture = wexonard
    religion = cult_of_the_dame

    # History
}

579 = {

    # Misc
    culture = wexonard
    religion = cult_of_the_dame

    # History
}

923 = {

    # Misc
    culture = wexonard
    religion = cult_of_the_dame

    # History
}

315 = {

    # Misc
    culture = wexonard
    religion = cult_of_the_dame

    # History
}

316 = {

    # Misc
    culture = wexonard
    religion = cult_of_the_dame

    # History
}

317 = {

    # Misc
    culture = wexonard
    religion = cult_of_the_dame

    # History
}

913 = {

    # Misc
    culture = wexonard
    religion = cult_of_the_dame

    # History
}

307 = {

    # Misc
    culture = wexonard
    religion = cult_of_the_dame

    # History
}

903 = {

    # Misc
    culture = wexonard
    religion = cult_of_the_dame

    # History
}

303 = {

    # Misc
    culture = wexonard
    religion = cult_of_the_dame

    # History
}

304 = {

    # Misc
    culture = wexonard
    religion = cult_of_the_dame

    # History
}

305 = {

    # Misc
    culture = wexonard
    religion = cult_of_the_dame

    # History
}

306 = {

    # Misc
    culture = wexonard
    religion = cult_of_the_dame

    # History
}

318 = {

    # Misc
    culture = wexonard
    religion = cult_of_the_dame

    # History
}

319 = {

    # Misc
    culture = wexonard
    religion = cult_of_the_dame

    # History
}

415 = {

    # Misc
    culture = wexonard
    religion = cult_of_the_dame

    # History
}

907 = {

    # Misc
    culture = wexonard
    religion = cult_of_the_dame

    # History
}

918 = {

    # Misc
    culture = wexonard
    religion = cult_of_the_dame

    # History
}

919 = {

    # Misc
    culture = wexonard
    religion = cult_of_the_dame

    # History
}