@smCastleX = 0.27
@smCastleY = 0.23
@smLysX = 0.23
@smLysY = 0.26
@smCross = 0.22

k_dameria = {
	pattern = "pattern_checkers_01.dds"
	color1 = "damerian_blue"
	color2 = "damerian_black"
	colored_emblem = {
		texture = "ce_anb_elven_ship.dds"
		color1 = "damerian_white"
		color2 = rgb { 107 107 107 }
		instance = { position = { 0.33 0.67 }	scale = { 0.39 0.39 }	}
		instance = { position = { 0.67 0.33 }	scale = { 0.39 0.39 }	}
	}
	colored_emblem = {
		texture = "ce_anb_elvenized_moon.dds"
		color1 = "damerian_white"
		instance = { position = { 0.33 0.33 }	scale = { 0.33 0.33 }	}
		instance = { position = { 0.67 0.67 }	scale = { 0.33 0.33 }	}
	}
}

k_old_dameria = { #WIP/Placeholder
	pattern = "pattern_checkers_01.dds"
	color1 = "damerian_blue"
	color2 = "damerian_black"
	colored_emblem = {
		texture = "ce_anb_elven_ship.dds"
		color1 = "damerian_white"
		color2 = rgb { 107 107 107 }
		instance = { position = { 0.33 0.67 }	scale = { 0.39 0.39 }	}
		instance = { position = { 0.67 0.33 }	scale = { 0.39 0.39 }	}
	}
	colored_emblem = {
		texture = "ce_anb_old_damerian_moon.dds"
		color1 = "damerian_white"
		instance = { position = { 0.33 0.33 }	scale = { 0.36 0.36 }	}
		instance = { position = { 0.67 0.67 }	scale = { 0.36 0.36 }	}
	}
}

d_damesear = {
	pattern = "pattern_solid.dds"
	color1 = "damerian_blue"
	color2 = "damerian_blue"
	colored_emblem = {
		texture = "ce_anb_elvenized_moon.dds"
		color1 = "damerian_white"
		instance = { position = { 0.5 0.5 } scale = { 0.8 0.8 } }
	}
}

c_anbenncost = {
	pattern = "pattern_solid.dds"
	color1 = "damerian_black"
	color2 = "damerian_black"
	colored_emblem = {
		texture = "ce_waves_04.dds"
		color1 = rgb { 74 197 216 }
		color2 = rgb { 74 197 216 }
		instance = { position = { 0.5 0.76 } scale = { 1.5 1.5 }  }
		instance = { position = { 0.5 1.11 } scale = { 1.5 1.5 }  }
	}
	colored_emblem = {
		texture = "ce_anb_elven_ship.dds"
		color1 = "damerian_white"
		color2 = rgb { 107 107 107 }
		instance = { position = { 0.40 0.52 } scale = { 0.71 0.71 }  }
	}
	colored_emblem = {
		texture = "ce_waves_04.dds"
		color1 = "damerian_blue"
		color2 = "damerian_blue"
		instance = { position = { 0.5 0.85 } scale = { 1.5 1.5 }  }
	}
	colored_emblem = {
		texture = "ce_anb_elvenized_moon.dds"
		color1 = "damerian_white"
		color2 = "damerian_white"
		instance = { position = { 0.78 0.22 } scale = { 0.36 0.36 }  }
	}
}

c_damesteeth = {
	pattern = "pattern_solid.dds"
	color1 = "damerian_white"
	color2 = "damerian_white"
	colored_emblem = {
		texture = "ce_mena_fess.dds"
		color1 = "green"
		color2 = "green"
		instance = { position = { 0.5 0.5 }	scale = { 1.0 1.0 }	}
	}
	colored_emblem = {
		texture = "ce_anb_old_damerian_moon.dds"
		color1 = "damerian_white"
		color2 = "damerian_white"
		instance = { position = { 0.25 0.5 }	scale = { 0.3 0.3 }	}
		instance = { position = { 0.5 0.5 }	scale = { 0.3 0.3 }	}
		instance = { position = { 0.75 0.5 }	scale = { 0.3 0.3 }	}
	}
}

c_auraire = {
	pattern = "pattern_solid.dds"
	color1 = "damerian_black"
	color2 = "damerian_black"
	colored_emblem = {
		texture = "ce_circle_mask.dds"
		color1 = "damerian_blue"
		instance = { position = { 0.531 0.5 }	scale = { 0.549 0.549 }	}
	}
	colored_emblem = {
		texture = "ce_anb_old_damerian_moon.dds"
		color1 = "damerian_white"
		instance = { position = { 0.5 0.5 }	scale = { 0.7 0.7 }	}
	}
}

c_old_damenath = {
	pattern = "pattern_solid.dds"
	color1 = "damerian_blue"
	color2 = "damerian_blue"
	colored_emblem = {
		texture = "ce_anb_old_damerian_moon.dds"
		color1 = "damerian_white"
		instance = { position = { 0.5 0.5 }	scale = { 0.7 0.7 }	}
	}
}

c_varivar = {
	pattern = "pattern_horizontal_split_01.dds"
	color1 = "green_light"
	color2 = "damerian_blue"
	colored_emblem = {
		texture = "ce_anb_elven_ship_02.dds"
		color1 = "damerian_white"
		color2 = "brown"
		instance = { position = { 0.5 0.37 }	scale = { 0.8 0.8 }	}
	}
}

c_eargate = {
	pattern = "pattern_solid.dds"
	color1 = "damerian_white"
	color2 = "damerian_white"
	colored_emblem = {
		texture = "ce_shield_01.dds"
		color1 = "damerian_blue"
		color2 = "damerian_blue"
		instance = { position = { 0.5 0.5 } scale = { 0.7 0.7 }  }
	}
	colored_emblem = {
		texture = "ce_anb_old_damerian_moon.dds"
		color1 = "damerian_white"
		color2 = "damerian_white"
		instance = { position = { 0.5 0.5 } scale = { 0.5 0.5 }  }
	}
}

c_moonmount = {
	pattern = "pattern_solid.dds"
	color1 = "damerian_black"
	color2 = "damerian_black"
	colored_emblem = {
		texture = "ce_anb_the_dame.dds"
		color1 = "damerian_blue"
		color2 = "damerian_white"
		instance = { position = { 0.5 0.5 } scale = { 0.8 0.8 } }
	}
}

d_wesdam = {
	pattern = "pattern_shield_01.dds"
	color1 = "lorentish_red_dark"
	color2 = "damerian_white"
	colored_emblem = {
		texture = "ce_anb_elvenized_moon.dds"
		color1 = "damerian_black"
		instance = { position = { 0.5 0.4 } scale = { 0.4 0.4 } }
	}
}

c_wesdam = {
	pattern = "pattern_shield_01.dds"
	color1 = "lorentish_red_dark"
	color2 = "damerian_white"
	colored_emblem = {
		texture = "ce_anb_elvenized_moon.dds"
		color1 = "damerian_black"
		instance = { position = { 0.5 0.4 } scale = { 0.4 0.4 } }
	}
}

d_istralore = {
	pattern = "pattern_solid.dds"
	color1 = "damerian_white"
	color2 = "damerian_white"
	#ermine pattern to be used for every other CoA in the mod
	colored_emblem = {
		texture = "ce_ermine_pattern.dds"
		color1 = "damerian_black"
		color2 = "damerian_black"
		instance = { position = { 0.5 0.422 } scale = { 1.18 0.9 }  }
		instance = { position = { 0.5 1.1697 } scale = { 1.18 0.9 }  }
	}
	colored_emblem = {
		texture = "ce_mena_bend.dds"
		color1 = rgb { 133 23 69 }
		color2 = rgb { 133 23 69 }
		instance = { position = { 0.5 0.5 } scale = { 1.14 1.14 }  }
	}
	colored_emblem = {
		texture = "ce_anb_sea_lion_rampant.dds"
		color1 = "yellow_light"
		color2 = rgb { 34 165 178 }
		instance = { position = { 0.28 0.28 } scale = { -0.33 0.33 }  }
		instance = { position = { 0.465 0.465 } scale = { -0.33 0.33 }  }
		instance = { position = { 0.65 0.65 } scale = { -0.33 0.33 }  }
	}
}

c_istralore = {
	pattern = "pattern_solid.dds"
	color1 = "damerian_white"
	color2 = "damerian_white"
	#ermine pattern to be used for every other CoA in the mod
	colored_emblem = {
		texture = "ce_ermine_pattern.dds"
		color1 = "damerian_black"
		color2 = "damerian_black"
		instance = { position = { 0.5 0.422 } scale = { 1.18 0.9 }  }
		instance = { position = { 0.5 1.1697 } scale = { 1.18 0.9 }  }
	}
	colored_emblem = {
		texture = "ce_mena_bend.dds"
		color1 = rgb { 133 23 69 }
		color2 = rgb { 133 23 69 }
		instance = { position = { 0.5 0.5 } scale = { 1.14 1.14 }  }
	}
	colored_emblem = {
		texture = "ce_anb_sea_lion_rampant.dds"
		color1 = "yellow_light"
		color2 = rgb { 34 165 178 }
		instance = { position = { 0.28 0.28 } scale = { -0.33 0.33 }  }
		instance = { position = { 0.465 0.465 } scale = { -0.33 0.33 }  }
		instance = { position = { 0.65 0.65 } scale = { -0.33 0.33 }  }
	}
}

d_acromton = {
	pattern = "pattern_solid.dds"
	color1 = rgb { 155 129 108 } #beige
	color2 = rgb { 182 151 126 } #beige
	colored_emblem = {
		texture = "ce_ragged_staff.dds" #placeholder
		color1 = "damerian_blue"
		color2 = "damerian_blue"
		instance = { position = { 0.25 0.25 } scale = { 1.0 1.0 } rotation = 45  }
		instance = { position = { 0.75 0.75 } scale = { 1.0 1.0 } rotation = 45  }
		instance = { position = { 0.75 0.25 } scale = { 1.0 1.0 } rotation = -45  }
		instance = { position = { 0.25 0.75 } scale = { 1.0 1.0 } rotation = -45  }
	}
}

k_pearlsedge = {
	pattern = "pattern_solid.dds"
	color1 = "pearlsedge_blue"
	color2 = "pearlsedge_blue"
	colored_emblem = {
		texture = "ce_circle.dds"
		color1 = "pearlsedge_pearl"
		instance = { position = { 0.5 0.4 }	scale = { 0.8 0.8 }	}
	}
}

d_pearlsedge = {
	pattern = "pattern_solid.dds"
	color1 = "pearlsedge_blue"
	color2 = "pearlsedge_blue"
	colored_emblem = {
		texture = "ce_circle.dds"
		color1 = "pearlsedge_pearl"
		instance = { position = { 0.5 0.4 }	scale = { 0.8 0.8 }	}
	}
}

c_pearlsedge = {

	pattern = "pattern_solid.dds"
	color1 = "pearlsedge_blue"	
	color2 = "pearlsedge_blue"	
	colored_emblem = {
		texture = "ce_circle.dds"
		color1 = "pearlsedge_pearl"
		instance = { position = { 0.5 0.4 }	scale = { 0.8 0.8 }	}
	}
}

d_pearlywine = {

	pattern = "pattern_bend_01.dds"
	color1 = "pearlsedge_pearl"	
	color2 = "pearlsedge_blue"
}

c_the_pearls = {
	pattern = "pattern_solid.dds"
	color1 = "blue"
	color2 = "blue"
	colored_emblem = {
		texture = "ce_circle_mask.dds"
		color1 = "pearlsedge_pearl"
		instance = { position = { 0.10 0.00 } scale = { 0.1 0.1 }  }
		instance = { position = { 0.30 0.00 } scale = { 0.1 0.1 }  }
		instance = { position = { 0.50 0.00 } scale = { 0.1 0.1 }  }
		instance = { position = { 0.70 0.00 } scale = { 0.1 0.1 }  }
		instance = { position = { 0.90 0.00 } scale = { 0.1 0.1 }  }
		instance = { position = { 0.00 0.20 } scale = { 0.1 0.1 }  }
		instance = { position = { 0.20 0.20 } scale = { 0.1 0.1 }  }
		instance = { position = { 0.40 0.20 } scale = { 0.1 0.1 }  }
		instance = { position = { 0.60 0.20 } scale = { 0.1 0.1 }  }
		instance = { position = { 0.80 0.20 } scale = { 0.1 0.1 }  }
		instance = { position = { 1.00 0.20 } scale = { 0.1 0.1 }  }
		instance = { position = { 0.10 0.40 } scale = { 0.1 0.1 }  }
		instance = { position = { 0.30 0.40 } scale = { 0.1 0.1 }  }
		instance = { position = { 0.50 0.40 } scale = { 0.1 0.1 }  }
		instance = { position = { 0.70 0.40 } scale = { 0.1 0.1 }  }
		instance = { position = { 0.90 0.40 } scale = { 0.1 0.1 }  }
		instance = { position = { 0.00 0.60 } scale = { 0.1 0.1 }  }
		instance = { position = { 0.20 0.60 } scale = { 0.1 0.1 }  }
		instance = { position = { 0.40 0.60 } scale = { 0.1 0.1 }  }
		instance = { position = { 0.60 0.60 } scale = { 0.1 0.1 }  }
		instance = { position = { 0.80 0.60 } scale = { 0.1 0.1 }  }
		instance = { position = { 1.00 0.60 } scale = { 0.1 0.1 }  }
		instance = { position = { 0.10 0.80 } scale = { 0.1 0.1 }  }
		instance = { position = { 0.30 0.80 } scale = { 0.1 0.1 }  }
		instance = { position = { 0.50 0.80 } scale = { 0.1 0.1 }  }
		instance = { position = { 0.70 0.80 } scale = { 0.1 0.1 }  }
		instance = { position = { 0.90 0.80 } scale = { 0.1 0.1 }  }
		instance = { position = { 0.00 1.00 } scale = { 0.1 0.1 }  }
		instance = { position = { 0.20 1.00 } scale = { 0.1 0.1 }  }
		instance = { position = { 0.40 1.00 } scale = { 0.1 0.1 }  }
		instance = { position = { 0.60 1.00 } scale = { 0.1 0.1 }  }
		instance = { position = { 0.80 1.00 } scale = { 0.1 0.1 }  }
		instance = { position = { 1.00 1.00 } scale = { 0.1 0.1 }  }
	}
}

k_small_kingdom = {
	pattern = "pattern_horizontal_split_01.dds"
	color1 = "damerian_black"	
	color2 = "damerian_black"
	colored_emblem = {
		texture = "ce_per_bend.dds"
		color1 = rgb { 183 23 31 } #red
		color2 = rgb { 216 191 23 } #yellow
		instance = { position = { 0.25 0.25 }	scale = { 0.5 0.5 }	}
	}
	colored_emblem = {
		texture = "ce_per_bend.dds"
		color1 = rgb { 214 86 32 } #orange
		color2 = rgb { 77 42 124 } #dark purple
		instance = { position = { 0.75 0.25 }	scale = { -0.5 0.5 }	}
	}
	colored_emblem = {
		texture = "ce_per_bend.dds"
		color1 = rgb { 143 85 163 } #light purple
		color2 = rgb { 10 102 49 } #green
		instance = { position = { 0.25 0.75 }	scale = { -0.5 0.5 }	}
	}
	colored_emblem = {
		texture = "ce_per_bend.dds"
		color1 = rgb { 216 191 23 } #yellow
		color2 = "blue"
		instance = { position = { 0.75 0.75 }	scale = { 0.5 0.5 }	}
	}
	colored_emblem = {
		texture = "ce_ordinary_saltire_5.dds"
		color1 = "damerian_white"
		color2 = "damerian_white"
		instance = { position = { 0.5 0.5 }	scale = { 1.0 1.0 }	}
	}
	colored_emblem = {
		texture = "ce_anb_shield_split.dds"
		color1 = "damerian_white"
		color2 = "damerian_white"
		instance = { position = { 0.5 0.5 }	scale = { 1.1 1.1 }	}
	}
	colored_emblem = {
		texture = "ce_anb_shield_split.dds"
		color1 = rgb { 10 102 49 } #green
		color2 = "blue"
		mask = { 1 }
		instance = { position = { 0.5 0.5 }	scale = { 1.0 1.0 }	}
	}
	colored_emblem = {
		texture = "ce_anb_shield_split.dds"
		color1 = rgb { 183 23 31 } #red
		color2 = rgb { 214 86 32 } #orange
		mask = { 2 }
		instance = { position = { 0.5 0.5 }	scale = { 1.0 1.0 }	}
	}
	colored_emblem = {
		texture = "ce_crown.dds"
		color1 = rgb { 216 191 23 } #yellow
		color2 = rgb { 183 23 31 } #red
		instance = { position = { 0.5 0.5 }	scale = { 0.4 0.2 }	}
	}
}

d_viswall = {
	pattern = "pattern_solid.dds"
	color1 = "damerian_white"	
	color2 = "damerian_white"
	colored_emblem = {
		texture = "ce_anb_ordinary_pale_5.dds"
		color1 = rgb { 183 23 31 } #red
		color2 = rgb { 183 23 31 } #red
		instance = { position = { 0.32 0.5 }	scale = { 0.3  0.45 }	}
	}
	colored_emblem = {
		texture = "ce_anb_ordinary_pale_5.dds"
		color1 = rgb { 214 86 32 } #orange
		color2 = rgb { 214 86 32 } #orange
		instance = { position = { 0.38 0.5 }	scale = { 0.3 0.45 }	}
	}
	colored_emblem = {
		texture = "ce_anb_ordinary_pale_5.dds"
		color1 = rgb { 216 191 23 } #yellow
		color2 = rgb { 216 191 23 } #yellow
		instance = { position = { 0.44 0.5 }	scale = { 0.3 0.45 }	}
	}
	colored_emblem = {
		texture = "ce_anb_ordinary_pale_5.dds"
		color1 = rgb { 10 102 49 } #green
		color2 = rgb { 10 102 49 } #green
		instance = { position = { 0.5 0.5 }	scale = { 0.3 0.45 }	}
	}
	colored_emblem = {
		texture = "ce_anb_ordinary_pale_5.dds"
		color1 = "blue"
		color2 = "blue"
		instance = { position = { 0.56 0.5 }	scale = { 0.3 0.45 }	}
	}
	colored_emblem = {
		texture = "ce_anb_ordinary_pale_5.dds"
		color1 = rgb { 77 42 124 } #dark purple
		color2 = rgb { 77 42 124 } #dark purple
		instance = { position = { 0.62 0.5 }	scale = { 0.3 0.45 }	}
	}
	colored_emblem = {
		texture = "ce_anb_ordinary_pale_5.dds"
		color1 = rgb { 143 85 163 } #light purple
		color2 = rgb { 143 85 163 } #light purple
		instance = { position = { 0.68 0.5 }	scale = { 0.3 0.45 }	}
	}
}

c_viswall = {
	pattern = "pattern_solid.dds"
	color1 = "damerian_white"	
	color2 = "damerian_white"
	colored_emblem = {
		texture = "ce_anb_ordinary_pale_5.dds"
		color1 = rgb { 183 23 31 } #red
		color2 = rgb { 183 23 31 } #red
		instance = { position = { 0.32 0.5 }	scale = { 0.3  0.45 }	}
	}
	colored_emblem = {
		texture = "ce_anb_ordinary_pale_5.dds"
		color1 = rgb { 214 86 32 } #orange
		color2 = rgb { 214 86 32 } #orange
		instance = { position = { 0.38 0.5 }	scale = { 0.3 0.45 }	}
	}
	colored_emblem = {
		texture = "ce_anb_ordinary_pale_5.dds"
		color1 = rgb { 216 191 23 } #yellow
		color2 = rgb { 216 191 23 } #yellow
		instance = { position = { 0.44 0.5 }	scale = { 0.3 0.45 }	}
	}
	colored_emblem = {
		texture = "ce_anb_ordinary_pale_5.dds"
		color1 = rgb { 10 102 49 } #green
		color2 = rgb { 10 102 49 } #green
		instance = { position = { 0.5 0.5 }	scale = { 0.3 0.45 }	}
	}
	colored_emblem = {
		texture = "ce_anb_ordinary_pale_5.dds"
		color1 = "blue"
		color2 = "blue"
		instance = { position = { 0.56 0.5 }	scale = { 0.3 0.45 }	}
	}
	colored_emblem = {
		texture = "ce_anb_ordinary_pale_5.dds"
		color1 = rgb { 77 42 124 } #dark purple
		color2 = rgb { 77 42 124 } #dark purple
		instance = { position = { 0.62 0.5 }	scale = { 0.3 0.45 }	}
	}
	colored_emblem = {
		texture = "ce_anb_ordinary_pale_5.dds"
		color1 = rgb { 143 85 163 } #light purple
		color2 = rgb { 143 85 163 } #light purple
		instance = { position = { 0.68 0.5 }	scale = { 0.3 0.45 }	}
	}
}

b_north_viswall = {
	pattern = "pattern_horizontal_split_01.dds"
	color1 = "damerian_white"
	color2 = "damerian_white"
	colored_emblem = {
		texture = "ce_anb_ordinary_pale_5.dds"
		color1 = rgb { 183 23 31 } #red
		color2 = rgb { 183 23 31 } #red
		mask = { 1 }
		instance = { position = { 0.08 0.5 }	scale = { 0.71 1.0 }	}
	}
	colored_emblem = {
		texture = "ce_anb_ordinary_pale_5.dds"
		color1 = rgb { 214 86 32 } #orange
		color2 = rgb { 214 86 32 } #orange
		mask = { 1 }
		instance = { position = { 0.22 0.5 }	scale = { 0.71 1.0 }	}
	}
	colored_emblem = {
		texture = "ce_anb_ordinary_pale_5.dds"
		color1 = rgb { 216 191 23 } #yellow
		color2 = rgb { 216 191 23 } #yellow
		mask = { 1 }
		instance = { position = { 0.36 0.5 }	scale = { 0.71 1.0 }	}
	}
	colored_emblem = {
		texture = "ce_anb_ordinary_pale_5.dds"
		color1 = rgb { 10 102 49 } #green
		color2 = rgb { 10 102 49 } #green
		mask = { 1 }
		instance = { position = { 0.5 0.5 }	scale = { 0.71 1.0 }	}
	}
	colored_emblem = {
		texture = "ce_anb_ordinary_pale_5.dds"
		color1 = "blue"
		color2 = "blue"
		mask = { 1 }
		instance = { position = { 0.64 0.5 }	scale = { 0.71 1.0 }	}
	}
	colored_emblem = {
		texture = "ce_anb_ordinary_pale_5.dds"
		color1 = rgb { 77 42 124 } #dark purple
		color2 = rgb { 77 42 124 } #dark purple
		mask = { 1 }
		instance = { position = { 0.78 0.5 }	scale = { 0.71 1.0 }	}
	}
	colored_emblem = {
		texture = "ce_anb_ordinary_pale_5.dds"
		color1 = rgb { 143 85 163 } #light purple
		color2 = rgb { 143 85 163 } #light purple
		mask = { 1 }
		instance = { position = { 0.92 0.5 }	scale = { 0.71 1.0 }	}
	}
}

b_south_viswall = {
	pattern = "pattern_horizontal_split_01.dds"
	color1 = "damerian_white""	
	color2 = "damerian_white""
	colored_emblem = {
		texture = "ce_anb_ordinary_pale_5.dds"
		color1 = rgb { 183 23 31 } #red
		color2 = rgb { 183 23 31 } #red
		mask = { 2 }
		instance = { position = { 0.08 0.5 }	scale = { 0.71 1.0 }	}
	}
	colored_emblem = {
		texture = "ce_anb_ordinary_pale_5.dds"
		color1 = rgb { 214 86 32 } #orange
		color2 = rgb { 214 86 32 } #orange
		mask = { 2 }
		instance = { position = { 0.22 0.5 }	scale = { 0.71 1.0 }	}
	}
	colored_emblem = {
		texture = "ce_anb_ordinary_pale_5.dds"
		color1 = rgb { 216 191 23 } #yellow
		color2 = rgb { 216 191 23 } #yellow
		mask = { 2 }
		instance = { position = { 0.36 0.5 }	scale = { 0.71 1.0 }	}
	}
	colored_emblem = {
		texture = "ce_anb_ordinary_pale_5.dds"
		color1 = rgb { 10 102 49 } #green
		color2 = rgb { 10 102 49 } #green
		mask = { 2 }
		instance = { position = { 0.5 0.5 }	scale = { 0.71 1.0 }	}
	}
	colored_emblem = {
		texture = "ce_anb_ordinary_pale_5.dds"
		color1 = "blue"
		color2 = "blue"
		mask = { 2 }
		instance = { position = { 0.64 0.5 }	scale = { 0.71 1.0 }	}
	}
	colored_emblem = {
		texture = "ce_anb_ordinary_pale_5.dds"
		color1 = rgb { 77 42 124 } #dark purple
		color2 = rgb { 77 42 124 } #dark purple
		mask = { 2 }
		instance = { position = { 0.78 0.5 }	scale = { 0.71 1.0 }	}
	}
	colored_emblem = {
		texture = "ce_anb_ordinary_pale_5.dds"
		color1 = rgb { 143 85 163 } #light purple
		color2 = rgb { 143 85 163 } #light purple
		mask = { 2 }
		instance = { position = { 0.92 0.5 }	scale = { 0.71 1.0 }	}
	}
}

k_uelaire = {
	pattern = "pattern_solid.dds"
	color1 = rgb { 145 209 185 }
	color2 = rgb { 145 209 185 }
	colored_emblem = {
		texture = "ce_trident.dds"
		color1 = "eborthili_gold"
		color2 = "eborthili_gold"
		instance = { position = { 0.5 0.7 } scale = { 1.2 1.2 }  }
	}
	colored_emblem = {
		texture = "ce_mena_fess.dds"
		color1 = rgb { 145 209 185 }
		color2 = rgb { 145 209 185 }
		instance = { position = { 0.5 0.9 } scale = { 1.0 1.0 }  }
	}
}

d_uelaire = {
	pattern = "pattern_solid.dds"
	color1 = rgb { 145 209 185 }
	color2 = rgb { 145 209 185 }
	colored_emblem = {
		texture = "ce_trident.dds"
		color1 = "eborthili_gold"
		color2 = "eborthili_gold"
		instance = { position = { 0.5 0.7 } scale = { 1.2 1.2 }  }
	}
	colored_emblem = {
		texture = "ce_mena_fess.dds"
		color1 = rgb { 145 209 185 }
		color2 = rgb { 145 209 185 }
		instance = { position = { 0.5 0.9 } scale = { 1.0 1.0 }  }
	}
}

c_uelaire = {
	pattern = "pattern_solid.dds"
	color1 = rgb { 145 209 185 }
	color2 = rgb { 145 209 185 }
	colored_emblem = {
		texture = "ce_trident.dds"
		color1 = "eborthili_gold"
		color2 = "eborthili_gold"
		instance = { position = { 0.5 0.7 } scale = { 1.2 1.2 }  }
	}
	colored_emblem = {
		texture = "ce_mena_fess.dds"
		color1 = rgb { 145 209 185 }
		color2 = rgb { 145 209 185 }
		instance = { position = { 0.5 0.9 } scale = { 1.0 1.0 }  }
	}
}

d_pearview = { 
	pattern = "pattern_diagonal_split_02.dds"
	color1 = "gawedi_blue"
	color2 = "damerian_white"
	colored_emblem = {
		texture = "ce_anb_pear.dds"
		color1 = rgb { 122 170 54 } #green
		color2 = "brown"
		instance = { position = { 0.35 0.65 } scale = { 0.6 0.6 } rotation = -45  }
	}
	colored_emblem = {
		texture = "ce_anb_pear.dds"
		color1 = rgb { 216 191 23 } #yellow
		color2 = "brown"
		instance = { position = { 0.65 0.35 } scale = { 0.6 0.6 } rotation = 135  }
	}
}

c_pearview = { 
	pattern = "pattern_diagonal_split_02.dds"
	color1 = "gawedi_blue"
	color2 = "damerian_white"
	colored_emblem = {
		texture = "ce_anb_pear.dds"
		color1 = rgb { 122 170 54 } #green
		color2 = "brown"
		instance = { position = { 0.35 0.65 } scale = { 0.6 0.6 } rotation = -45  }
	}
	colored_emblem = {
		texture = "ce_anb_pear.dds"
		color1 = rgb { 216 191 23 } #yellow
		color2 = "brown"
		instance = { position = { 0.65 0.35 } scale = { 0.6 0.6 } rotation = 135  }
	}
}

d_appleton = { 
	pattern = "pattern_checkers_02.dds"
	color1 = rgb { 196 154 108 } #light brown
	color2 = "brown"
	colored_emblem = {
		texture = "ce_checkers_06.dds"
		color1 = rgb { 196 154 108 } #light brown
		color2 = "brown"
		instance = { position = { 0.5 0.5 }	scale = { 1.43 1.43 }	}
	}
	colored_emblem = {
		texture = "ce_anb_apple.dds"
		color1 = rgb { 122 170 54 } #green
		color2 = rgb { 196 154 108 } #light brown
		instance = { position = { 0.14 0.14 } scale = { 0.25 0.25 }  }
		instance = { position = { 0.62 0.14 } scale = { 0.25 0.25 }  }
		instance = { position = { 0.38 0.38 } scale = { 0.25 0.25 }  }
		instance = { position = { 0.86 0.38 } scale = { 0.25 0.25 }  }
		instance = { position = { 0.14 0.62 } scale = { 0.25 0.25 }  }
		instance = { position = { 0.62 0.62 } scale = { 0.25 0.25 }  }
		instance = { position = { 0.38 0.86 } scale = { 0.25 0.25 }  }
		instance = { position = { 0.86 0.86 } scale = { 0.25 0.25 }  }
	}
	colored_emblem = {
		texture = "ce_anb_apple.dds"
		color1 = "lorentish_red"
		color2 = "brown"
		instance = { position = { 0.38 0.14 } scale = { 0.25 0.25 }  }
		instance = { position = { 0.86 0.14 } scale = { 0.25 0.25 }  }
		instance = { position = { 0.14 0.38 } scale = { 0.25 0.25 }  }
		instance = { position = { 0.62 0.38 } scale = { 0.25 0.25 }  }
		instance = { position = { 0.38 0.62 } scale = { 0.25 0.25 }  }
		instance = { position = { 0.86 0.62 } scale = { 0.25 0.25 }  }
		instance = { position = { 0.14 0.86 } scale = { 0.25 0.25 }  }
		instance = { position = { 0.62 0.86 } scale = { 0.25 0.25 }  }
	}
}

c_appleton = { 
	pattern = "pattern_checkers_02.dds"
	color1 = rgb { 196 154 108 } #light brown
	color2 = "brown"
	colored_emblem = {
		texture = "ce_checkers_06.dds"
		color1 = rgb { 196 154 108 } #light brown
		color2 = "brown"
		instance = { position = { 0.5 0.5 }	scale = { 1.43 1.43 }	}
	}
	colored_emblem = {
		texture = "ce_anb_apple.dds"
		color1 = rgb { 122 170 54 } #green
		color2 = rgb { 196 154 108 } #light brown
		instance = { position = { 0.14 0.14 } scale = { 0.25 0.25 }  }
		instance = { position = { 0.62 0.14 } scale = { 0.25 0.25 }  }
		instance = { position = { 0.38 0.38 } scale = { 0.25 0.25 }  }
		instance = { position = { 0.86 0.38 } scale = { 0.25 0.25 }  }
		instance = { position = { 0.14 0.62 } scale = { 0.25 0.25 }  }
		instance = { position = { 0.62 0.62 } scale = { 0.25 0.25 }  }
		instance = { position = { 0.38 0.86 } scale = { 0.25 0.25 }  }
		instance = { position = { 0.86 0.86 } scale = { 0.25 0.25 }  }
	}
	colored_emblem = {
		texture = "ce_anb_apple.dds"
		color1 = "lorentish_red"
		color2 = "brown"
		instance = { position = { 0.38 0.14 } scale = { 0.25 0.25 }  }
		instance = { position = { 0.86 0.14 } scale = { 0.25 0.25 }  }
		instance = { position = { 0.14 0.38 } scale = { 0.25 0.25 }  }
		instance = { position = { 0.62 0.38 } scale = { 0.25 0.25 }  }
		instance = { position = { 0.38 0.62 } scale = { 0.25 0.25 }  }
		instance = { position = { 0.86 0.62 } scale = { 0.25 0.25 }  }
		instance = { position = { 0.14 0.86 } scale = { 0.25 0.25 }  }
		instance = { position = { 0.62 0.86 } scale = { 0.25 0.25 }  }
	}
}

k_beepeck = {
	pattern = "pattern_solid.dds"
	color1 = "damerian_black"
	color2 = "damerian_black"
	colored_emblem = {
		texture = "ce_paly_04.dds"
		color1 = "damerian_black"
		color2 = rgb { 0 140 50 }
		instance = { position = { 0.62 0.5 } scale = { 1.25 1.0 }  }
	}
	colored_emblem = {
		texture = "ce_bee.dds"
		color1 = "yellow"
		color2 = "yellow"
		color3 = "damerian_white"
		#left row
		instance = { position = { 0.04 0.03 } scale = { 0.24 0.24 }  }
		instance = { position = { 0.04 0.25 } scale = { 0.24 0.24 }  }
		instance = { position = { 0.04 0.47 } scale = { 0.24 0.24 }  }
		instance = { position = { 0.04 0.69 } scale = { 0.24 0.24 }  }
		instance = { position = { 0.04 0.91 } scale = { 0.24 0.24 }  }
		#second left row
		instance = { position = { 0.27 0.14 } scale = { 0.24 0.24 }  }
		instance = { position = { 0.27 0.38 } scale = { 0.24 0.24 }  }
		instance = { position = { 0.27 0.62 } scale = { 0.24 0.24 }  }
		instance = { position = { 0.27 0.86 } scale = { 0.24 0.24 }  }
		#middle row
		instance = { position = { 0.5 0.03 } scale = { 0.24 0.24 }  }
		instance = { position = { 0.5 0.25 } scale = { 0.24 0.24 }  }
		instance = { position = { 0.5 0.47 } scale = { 0.24 0.24 }  }
		instance = { position = { 0.5 0.69 } scale = { 0.24 0.24 }  }
		instance = { position = { 0.5 0.91 } scale = { 0.24 0.24 }  }
		#second right row
		instance = { position = { 0.73 0.14 } scale = { 0.24 0.24 }  }
		instance = { position = { 0.73 0.38 } scale = { 0.24 0.24 }  }
		instance = { position = { 0.73 0.62 } scale = { 0.24 0.24 }  }
		instance = { position = { 0.73 0.86 } scale = { 0.24 0.24 }  }
		#right row
		instance = { position = { 0.96 0.03 } scale = { 0.24 0.24 }  }
		instance = { position = { 0.96 0.25 } scale = { 0.24 0.24 }  }
		instance = { position = { 0.96 0.47 } scale = { 0.24 0.24 }  }
		instance = { position = { 0.96 0.69 } scale = { 0.24 0.24 }  }
		instance = { position = { 0.96 0.91 } scale = { 0.24 0.24 }  }
	}
}

d_beepeck = {
	pattern = "pattern_solid.dds"
	color1 = "damerian_black"
	color2 = "damerian_black"
	colored_emblem = {
		texture = "ce_paly_04.dds"
		color1 = "damerian_black"
		color2 = rgb { 0 140 50 }
		instance = { position = { 0.62 0.5 } scale = { 1.25 1.0 }  }
	}
	colored_emblem = {
		texture = "ce_bee.dds"
		color1 = "yellow"
		color2 = "yellow"
		color3 = "damerian_white"
		#left row
		instance = { position = { 0.04 0.03 } scale = { 0.24 0.24 }  }
		instance = { position = { 0.04 0.25 } scale = { 0.24 0.24 }  }
		instance = { position = { 0.04 0.47 } scale = { 0.24 0.24 }  }
		instance = { position = { 0.04 0.69 } scale = { 0.24 0.24 }  }
		instance = { position = { 0.04 0.91 } scale = { 0.24 0.24 }  }
		#second left row
		instance = { position = { 0.27 0.14 } scale = { 0.24 0.24 }  }
		instance = { position = { 0.27 0.38 } scale = { 0.24 0.24 }  }
		instance = { position = { 0.27 0.62 } scale = { 0.24 0.24 }  }
		instance = { position = { 0.27 0.86 } scale = { 0.24 0.24 }  }
		#middle row
		instance = { position = { 0.5 0.03 } scale = { 0.24 0.24 }  }
		instance = { position = { 0.5 0.25 } scale = { 0.24 0.24 }  }
		instance = { position = { 0.5 0.47 } scale = { 0.24 0.24 }  }
		instance = { position = { 0.5 0.69 } scale = { 0.24 0.24 }  }
		instance = { position = { 0.5 0.91 } scale = { 0.24 0.24 }  }
		#second right row
		instance = { position = { 0.73 0.14 } scale = { 0.24 0.24 }  }
		instance = { position = { 0.73 0.38 } scale = { 0.24 0.24 }  }
		instance = { position = { 0.73 0.62 } scale = { 0.24 0.24 }  }
		instance = { position = { 0.73 0.86 } scale = { 0.24 0.24 }  }
		#right row
		instance = { position = { 0.96 0.03 } scale = { 0.24 0.24 }  }
		instance = { position = { 0.96 0.25 } scale = { 0.24 0.24 }  }
		instance = { position = { 0.96 0.47 } scale = { 0.24 0.24 }  }
		instance = { position = { 0.96 0.69 } scale = { 0.24 0.24 }  }
		instance = { position = { 0.96 0.91 } scale = { 0.24 0.24 }  }
	}
}

c_beepeck = {
	pattern = "pattern_solid.dds"
	color1 = "damerian_black"
	color2 = "damerian_black"
	colored_emblem = {
		texture = "ce_paly_04.dds"
		color1 = "damerian_black"
		color2 = rgb { 0 140 50 }
		instance = { position = { 0.62 0.5 } scale = { 1.25 1.0 }  }
	}
	colored_emblem = {
		texture = "ce_bee.dds"
		color1 = "yellow"
		color2 = "yellow"
		color3 = "damerian_white"
		#left row
		instance = { position = { 0.04 0.03 } scale = { 0.24 0.24 }  }
		instance = { position = { 0.04 0.25 } scale = { 0.24 0.24 }  }
		instance = { position = { 0.04 0.47 } scale = { 0.24 0.24 }  }
		instance = { position = { 0.04 0.69 } scale = { 0.24 0.24 }  }
		instance = { position = { 0.04 0.91 } scale = { 0.24 0.24 }  }
		#second left row
		instance = { position = { 0.27 0.14 } scale = { 0.24 0.24 }  }
		instance = { position = { 0.27 0.38 } scale = { 0.24 0.24 }  }
		instance = { position = { 0.27 0.62 } scale = { 0.24 0.24 }  }
		instance = { position = { 0.27 0.86 } scale = { 0.24 0.24 }  }
		#middle row
		instance = { position = { 0.5 0.03 } scale = { 0.24 0.24 }  }
		instance = { position = { 0.5 0.25 } scale = { 0.24 0.24 }  }
		instance = { position = { 0.5 0.47 } scale = { 0.24 0.24 }  }
		instance = { position = { 0.5 0.69 } scale = { 0.24 0.24 }  }
		instance = { position = { 0.5 0.91 } scale = { 0.24 0.24 }  }
		#second right row
		instance = { position = { 0.73 0.14 } scale = { 0.24 0.24 }  }
		instance = { position = { 0.73 0.38 } scale = { 0.24 0.24 }  }
		instance = { position = { 0.73 0.62 } scale = { 0.24 0.24 }  }
		instance = { position = { 0.73 0.86 } scale = { 0.24 0.24 }  }
		#right row
		instance = { position = { 0.96 0.03 } scale = { 0.24 0.24 }  }
		instance = { position = { 0.96 0.25 } scale = { 0.24 0.24 }  }
		instance = { position = { 0.96 0.47 } scale = { 0.24 0.24 }  }
		instance = { position = { 0.96 0.69 } scale = { 0.24 0.24 }  }
		instance = { position = { 0.96 0.91 } scale = { 0.24 0.24 }  }
	}
}

k_roysfort = {

	pattern = "pattern_solid.dds"
	color1 = rgb { 10 102 49 } #green
	color2 = rgb { 10 102 49 } #green
	colored_emblem = {
		texture = "ce_waves_03.dds"
		color1 = "blue"
		color2 = "damerian_white"
		instance = { position = { 0.5 0.5 }	scale = { -1.0 1.0 }	}
	}
	colored_emblem = {
		texture = "ce_castle.dds"
		color1 = "white"
		color2 = "damerian_black"
		instance = { position = { 0.27 0.27 }	scale = { 0.33 0.33 }	}
		instance = { position = { 0.7 0.7 }	scale = { 0.33 0.33 }	}
	}
}

d_roysfort = {

	pattern = "pattern_solid.dds"
	color1 = rgb { 10 102 49 } #green
	color2 = rgb { 10 102 49 } #green
	colored_emblem = {
		texture = "ce_waves_03.dds"
		color1 = "blue"
		color2 = "damerian_white"
		instance = { position = { 0.5 0.5 }	scale = { -1.0 1.0 }	}
	}
	colored_emblem = {
		texture = "ce_castle.dds"
		color1 = "white"
		color2 = "damerian_black"
		instance = { position = { 0.27 0.27 }	scale = { 0.33 0.33 }	}
		instance = { position = { 0.7 0.7 }	scale = { 0.33 0.33 }	}
	}
}

c_roysfort = {

	pattern = "pattern_solid.dds"
	color1 = rgb { 10 102 49 } #green
	color2 = rgb { 10 102 49 } #green
	colored_emblem = {
		texture = "ce_waves_03.dds"
		color1 = "blue"
		color2 = "damerian_white"
		instance = { position = { 0.5 0.5 }	scale = { -1.0 1.0 }	}
	}
	colored_emblem = {
		texture = "ce_castle.dds"
		color1 = "white"
		color2 = "damerian_black"
		instance = { position = { 0.27 0.27 }	scale = { 0.33 0.33 }	}
		instance = { position = { 0.7 0.7 }	scale = { 0.33 0.33 }	}
	}
}

k_lorent = {

	pattern = "pattern_horizontal_split_01.dds"
	color1 = "lorentish_lilac"	
	color2 = "lorentish_green"
	colored_emblem = {
		texture = "ce_anb_lorentish_circlet.dds"
		color1 = "damerian_white"
		color2 = "lorentish_gold"
		instance = { position = { 0.5 0.5 }	scale = { 0.9 0.9 }	}
	}
	colored_emblem = {
		texture = "ce_anb_elvenized_rose.dds"
		color1 = "lorentish_red"
		color2 = "lorentish_red_dark"
		instance = { position = { 0.5 0.5 }	scale = { 0.7 0.7 }	}
	}
}

d_redglades = { 
	pattern = "pattern_solid.dds"
	color1 = "lorentish_red_dark"
	color2 = "lorentish_red_dark"
	colored_emblem = {
		texture = "ce_yggdrasil.dds"
		color1 = "white"
		color2 = "white"
		instance = { position = { 0.5 0.5 }	scale = { 0.8 0.8 }	}
	}
}

k_league_of_winebay = {
	pattern = "pattern_vertical_split_01.dds"
	color1 = "lorentish_red_dark"
	color2 = rgb { 17 125 141 }
	colored_emblem = {
		texture = "ce_waves_04.dds"
		color1 = "white"
		color2 = "white"
		instance = { position = { 0.5 0.76 } scale = { 1.5 1.5 }  }
		instance = { position = { 0.5 1.11 } scale = { 1.5 1.5 }  }
	}
	colored_emblem = {
		texture = "ce_waves_04.dds"
		color1 = "derannic_purple"
		color2 = "derannic_purple"
		instance = { position = { 0.5 0.85 } scale = { 1.5 1.5 }  }
	}
	colored_emblem = {
		texture = "ce_anb_grapes.dds"
		color1 = "derannic_purple"
		color2 = "green_light"
		instance = { position = { 0.28 0.35 }	scale = { -0.5 0.5 }	}
	}
	colored_emblem = {
		texture = "ce_anb_grapes.dds"
		color1 = "yellow"
		color2 = "green_light"
		instance = { position = { 0.72 0.35 }	scale = { 0.5 0.5 }	}
	}
}

c_wineport = {
	pattern = "pattern_solid.dds"
	color1 = "lorentish_red_dark"
	color2 = "lorentish_red_dark"
	colored_emblem = {
		texture = "ce_waves_04.dds"
		color1 = "white"
		color2 = "white"
		instance = { position = { 0.5 0.76 } scale = { 1.5 1.5 }  }
		instance = { position = { 0.5 1.11 } scale = { 1.5 1.5 }  }
	}
	colored_emblem = {
		texture = "ce_waves_04.dds"
		color1 = "derannic_purple"
		color2 = "derannic_purple"
		instance = { position = { 0.5 0.85 } scale = { 1.5 1.5 }  }
	}
	colored_emblem = {
		texture = "ce_anb_grapes.dds"
		color1 = "derannic_purple"
		color2 = "green_light"
		instance = { position = { 0.22 0.35 }	scale = { -0.39 0.39 }	}
	}
	colored_emblem = {
		texture = "ce_anb_grapes.dds"
		color1 = "derannic_purple"
		color2 = "green_light"
		instance = { position = { 0.48 0.35 }	scale = { -0.39 0.39 }	}
	}
	colored_emblem = {
		texture = "ce_anb_grapes.dds"
		color1 = "derannic_purple"
		color2 = "green_light"
		instance = { position = { 0.74 0.35 }	scale = { -0.39 0.39 }	}
	}
}

k_rubyhold = { 
	pattern = "pattern_solid.dds"
	color1 = "grey"
	color2 = "grey"
	colored_emblem = {
		texture = "ce_pagan_hors.dds"
		color1 = "lorentish_red"
		color2 = "lorentish_red"
		instance = { position = { 0.5 0.5 }	scale = { 0.8 0.8 }	rotation = 45 }
	}	
}

d_rubyhold = { 
	pattern = "pattern_solid.dds"
	color1 = "grey"
	color2 = "grey"
	colored_emblem = {
		texture = "ce_pagan_hors.dds"
		color1 = "lorentish_red"
		color2 = "lorentish_red"
		instance = { position = { 0.5 0.5 }	scale = { 0.8 0.8 }	rotation = 45 }
	}	
}

c_rubyhold = { 
	pattern = "pattern_solid.dds"
	color1 = "grey"
	color2 = "grey"
	colored_emblem = {
		texture = "ce_pagan_hors.dds"
		color1 = "lorentish_red"
		color2 = "lorentish_red"
		instance = { position = { 0.5 0.5 }	scale = { 0.8 0.8 }	rotation = 45 }
	}	
}

k_deranne = {
	pattern = "pattern_vertical_split_01.dds"
	color1 = "pearlsedge_blue"	
	color2 = "lorentish_green"
	colored_emblem = {
		texture = "ce_anb_lorentish_circlet.dds"
		color1 = "damerian_white"
		color2 = "damerian_white"
		instance = { position = { 0.5 0.5 }	scale = { 0.9 0.9 }	}
	}
	colored_emblem = {
		texture = "ce_anb_elvenized_rose.dds"
		color1 = "derannic_purple"
		color2 = "derannic_pink"
		instance = { position = { 0.5 0.5 }	scale = { 0.7 0.7 }	}
	}
	# pattern = "pattern_vertical_split_01.dds"
	# color1 = "pearlsedge_blue"	
	# color2 = "pearlsedge_blue"
	# colored_emblem = {
	# 	texture = "ce_anb_lorentish_circlet.dds"
	# 	color1 = "damerian_white"
	# 	color2 = "damerian_white"
	# 	instance = { position = { 0.5 0.5 }	scale = { 0.9 0.9 }	}
	# }
	# colored_emblem = {
	# 	texture = "ce_pagan_circle_frame.dds"
	# 	color1 = "lorentish_green"
	# 	instance = { position = { 0.5 0.5 }	scale = { 0.9 0.9 }	}
	# }
	# colored_emblem = {
	# 	texture = "ce_anb_elvenized_rose.dds"
	# 	color1 = "derannic_purple"
	# 	color2 = "derannic_pink"
	# 	instance = { position = { 0.5 0.5 }	scale = { 0.7 0.7 }	}
	# }
}


d_deranne = {

	pattern = "pattern_vertical_split_01.dds"
	color1 = "pearlsedge_blue"	
	color2 = "lorentish_green"
	colored_emblem = {
		texture = "ce_anb_lorentish_circlet.dds"
		color1 = "damerian_white"
		color2 = "damerian_white"
		instance = { position = { 0.5 0.5 }	scale = { 0.9 0.9 }	}
	}
	colored_emblem = {
		texture = "ce_anb_elvenized_rose.dds"
		color1 = "derannic_purple"
		color2 = "derannic_pink"
		instance = { position = { 0.5 0.5 }	scale = { 0.7 0.7 }	}
	}
}


c_deranne = {

	pattern = "pattern_vertical_split_01.dds"
	color1 = "pearlsedge_blue"	
	color2 = "lorentish_green"
	colored_emblem = {
		texture = "ce_anb_lorentish_circlet.dds"
		color1 = "damerian_white"
		color2 = "damerian_white"
		instance = { position = { 0.5 0.5 }	scale = { 0.9 0.9 }	}
	}
	colored_emblem = {
		texture = "ce_anb_elvenized_rose.dds"
		color1 = "derannic_purple"
		color2 = "derannic_pink"
		instance = { position = { 0.5 0.5 }	scale = { 0.7 0.7 }	}
	}
}

k_sorncost = {
	pattern = "pattern_checkers_01.dds"
	color1 = "lorentish_red"
	color2 = "damerian_white"
	colored_emblem = {
		texture = "ce_anb_grapes.dds"
		color1 = "derannic_purple"
		color2 = "green_light"
		instance = { position = { 0.35 0.31 }	scale = { 0.35 0.35 }	}
		instance = { position = { 0.67 0.67 }	scale = { 0.35 0.35 }	}
	}
	colored_emblem = {
		texture = "ce_anb_elvenized_rose.dds"
		color1 = "lorentish_red"
		color2 = "lorentish_red_dark"
		instance = { position = { 0.33 0.67 }	scale = { 0.39 0.39 }	}
		instance = { position = { 0.67 0.33 }	scale = { 0.39 0.39 }	}
	}
}

d_sorncost = {
	pattern = "pattern_checkers_01.dds"
	color1 = "lorentish_red"
	color2 = "damerian_white"
	colored_emblem = {
		texture = "ce_anb_grapes.dds"
		color1 = "derannic_purple"
		color2 = "green_light"
		instance = { position = { 0.35 0.31 }	scale = { 0.35 0.35 }	}
		instance = { position = { 0.67 0.67 }	scale = { 0.35 0.35 }	}
	}
	colored_emblem = {
		texture = "ce_anb_elvenized_rose.dds"
		color1 = "lorentish_red"
		color2 = "lorentish_red_dark"
		instance = { position = { 0.33 0.67 }	scale = { 0.39 0.39 }	}
		instance = { position = { 0.67 0.33 }	scale = { 0.39 0.39 }	}
	}
}

c_sorncost = {
	pattern = "pattern_checkers_01.dds"
	color1 = "lorentish_red"
	color2 = "damerian_white"
	colored_emblem = {
		texture = "ce_anb_grapes.dds"
		color1 = "derannic_purple"
		color2 = "green_light"
		instance = { position = { 0.35 0.31 }	scale = { 0.35 0.35 }	}
		instance = { position = { 0.67 0.67 }	scale = { 0.35 0.35 }	}
	}
	colored_emblem = {
		texture = "ce_anb_elvenized_rose.dds"
		color1 = "lorentish_red"
		color2 = "lorentish_red_dark"
		instance = { position = { 0.33 0.67 }	scale = { 0.39 0.39 }	}
		instance = { position = { 0.67 0.33 }	scale = { 0.39 0.39 }	}
	}
}

k_iochand = {
	pattern = "pattern_horizontal_split_01.dds"
	color1 = "gawedi_blue"
	color2 = "yellow"
	colored_emblem = {
		texture = "ce_block_04.dds"
		color1 = "yellow"
		color2 = "yellow"
		instance = { position = { 0.5 0.37 } scale = { 1.5 2.0 } }
	}
	colored_emblem = {
		texture = "ce_waves_04.dds"
		color1 = "yellow"
		color2 = "yellow"
		instance = { position = { 0.5 0.37 } scale = { 1.5 1.5 } }
	}
	colored_emblem = {
		texture = "ce_block_04.dds"
		color1 = "gawedi_blue"
		color2 = "gawedi_blue"
		instance = { position = { 0.5 0.63 } scale = { 1.5 2.0 } }
	}
	colored_emblem = {
		texture = "ce_waves_04.dds"
		color1 = "gawedi_blue"
		color2 = "gawedi_blue"
		instance = { position = { 0.5 0.63 } scale = { 1.5 1.5 } }
	}
	colored_emblem = {
		texture = "ce_anb_crown.dds"
		color1 = "yellow"
		color2 = "yellow_light"
		instance = { position = { 0.5 0.2 } scale = { 0.45 0.4 } }
	}
	colored_emblem = {
		texture = "ce_anb_masks.dds"
		color1 = rgb { 141 204 122 }
		color2 = "damerian_black"
		instance = { position = { 0.5 0.55 } scale = { 1.0 1.0 } }
	}
}

d_iochand = {
	pattern = "pattern_horizontal_split_01.dds"
	color1 = "gawedi_blue"
	color2 = "yellow"
	colored_emblem = {
		texture = "ce_block_04.dds"
		color1 = "yellow"
		color2 = "yellow"
		instance = { position = { 0.5 0.37 } scale = { 1.5 2.0 } }
	}
	colored_emblem = {
		texture = "ce_waves_04.dds"
		color1 = "yellow"
		color2 = "yellow"
		instance = { position = { 0.5 0.37 } scale = { 1.5 1.5 } }
	}
	colored_emblem = {
		texture = "ce_block_04.dds"
		color1 = "gawedi_blue"
		color2 = "gawedi_blue"
		instance = { position = { 0.5 0.63 } scale = { 1.5 2.0 } }
	}
	colored_emblem = {
		texture = "ce_waves_04.dds"
		color1 = "gawedi_blue"
		color2 = "gawedi_blue"
		instance = { position = { 0.5 0.63 } scale = { 1.5 1.5 } }
	}
	colored_emblem = {
		texture = "ce_anb_masks.dds"
		color1 = rgb { 141 204 122 }
		color2 = "damerian_black"
		instance = { position = { 0.5 0.5 } scale = { 1.0 1.0 } }
	}
}

c_iochand = {
	pattern = "pattern_horizontal_split_01.dds"
	color1 = "gawedi_blue"
	color2 = "yellow"
	colored_emblem = {
		texture = "ce_block_04.dds"
		color1 = "yellow"
		color2 = "yellow"
		instance = { position = { 0.5 0.37 } scale = { 1.5 2.0 } }
	}
	colored_emblem = {
		texture = "ce_waves_04.dds"
		color1 = "yellow"
		color2 = "yellow"
		instance = { position = { 0.5 0.37 } scale = { 1.5 1.5 } }
	}
	colored_emblem = {
		texture = "ce_block_04.dds"
		color1 = "gawedi_blue"
		color2 = "gawedi_blue"
		instance = { position = { 0.5 0.63 } scale = { 1.5 2.0 } }
	}
	colored_emblem = {
		texture = "ce_waves_04.dds"
		color1 = "gawedi_blue"
		color2 = "gawedi_blue"
		instance = { position = { 0.5 0.63 } scale = { 1.5 1.5 } }
	}
	colored_emblem = {
		texture = "ce_anb_masks.dds"
		color1 = rgb { 141 204 122 }
		color2 = "damerian_black"
		instance = { position = { 0.5 0.5 } scale = { 1.0 1.0 } }
	}
}

d_portnamm = {
	pattern = "pattern_checkers_01.dds"
	color1 = "yellow"
	color2 = "gawedi_blue"
	colored_emblem = {
		texture = "ce_anb_masks.dds"
		color1 = rgb { 141 204 122 }
		color2 = "damerian_black"
		instance = { position = { 0.5 0.5 } scale = { 1.0 1.0 } }
	}
}

c_portnamm = {
	pattern = "pattern_checkers_01.dds"
	color1 = "yellow"
	color2 = "gawedi_blue"
	colored_emblem = {
		texture = "ce_anb_masks.dds"
		color1 = rgb { 141 204 122 }
		color2 = "damerian_black"
		instance = { position = { 0.5 0.5 } scale = { 1.0 1.0 } }
	}
}

k_reveria = {
	pattern = "pattern_checkers_08.dds"
	color1 = "grey"
	color2 = "damerian_white"
	colored_emblem = {
		texture = "ce_checkers_08.dds"
		color1 = "grey"
		color2 = "damerian_white"
		instance = { position = { 0.5 0.5 } scale = { 1.0 2.0 } }
	}
	colored_emblem = {
		texture = "ce_ship_longship.dds"
		color1 = "pearlsedge_blue"
		color2 = "brown"
		#first line
		instance = { position = { 0.0 0.14 } scale = { 0.24 0.24 }  }
		instance = { position = { 0.25 0.14 } scale = { 0.24 0.24 }  }
		instance = { position = { 0.5 0.14 } scale = { 0.24 0.24 }  }
		instance = { position = { 0.75 0.14 } scale = { 0.24 0.24 }  }
		instance = { position = { 1.0 0.14 } scale = { 0.24 0.24 }  }
		#second line
		instance = { position = { 0.14 0.39 } scale = { 0.24 0.24 }  }
		instance = { position = { 0.38 0.39 } scale = { 0.24 0.24 }  }
		instance = { position = { 0.62 0.39 } scale = { 0.24 0.24 }  }
		instance = { position = { 0.86 0.39 } scale = { 0.24 0.24 }  }
		#third line
		instance = { position = { 0.0 0.64 } scale = { 0.24 0.24 }  }
		instance = { position = { 0.25 0.64 } scale = { 0.24 0.24 }  }
		instance = { position = { 0.5 0.64 } scale = { 0.24 0.24 }  }
		instance = { position = { 0.75 0.64 } scale = { 0.24 0.24 }  }
		instance = { position = { 1.0 0.64 } scale = { 0.24 0.24 }  }
		#fourth line
		instance = { position = { 0.14 0.89 } scale = { 0.24 0.24 }  }
		instance = { position = { 0.38 0.89 } scale = { 0.24 0.24 }  }
		instance = { position = { 0.62 0.89 } scale = { 0.24 0.24 }  }
		instance = { position = { 0.86 0.89 } scale = { 0.24 0.24 }  }
	}
}

k_nimscodd = {
	pattern = "pattern_checkers_01.dds"
	color1 = "damerian_black"
	color2 = rgb { 107 107 107 }
	colored_emblem = {
		texture = "ce_circle_mask.dds"
		color1 = rgb { 237 190 241 }
		color2 = rgb { 237 190 241 }
		instance = { position = { 0.5 0.5 } scale = { 0.5 0.5 }  }
	}
	colored_emblem = {
		texture = "ce_anb_cog.dds"
		color1 = rgb { 167 90 148 }
		color2 = rgb { 167 90 148 }
		instance = { position = { 0.5 0.5 } scale = { 0.6 0.6 }  }
	}
}

d_nimscodd = {
	pattern = "pattern_checkers_01.dds"
	color1 = "damerian_black"
	color2 = rgb { 107 107 107 }
	colored_emblem = {
		texture = "ce_circle_mask.dds"
		color1 = rgb { 237 190 241 }
		color2 = rgb { 237 190 241 }
		instance = { position = { 0.5 0.5 } scale = { 0.5 0.5 }  }
	}
	colored_emblem = {
		texture = "ce_anb_cog.dds"
		color1 = rgb { 167 90 148 }
		color2 = rgb { 167 90 148 }
		instance = { position = { 0.5 0.5 } scale = { 0.6 0.6 }  }
	}
}

c_nimscodd = {
	pattern = "pattern_checkers_01.dds"
	color1 = "damerian_black"
	color2 = rgb { 107 107 107 }
	colored_emblem = {
		texture = "ce_circle_mask.dds"
		color1 = rgb { 237 190 241 }
		color2 = rgb { 237 190 241 }
		instance = { position = { 0.5 0.5 } scale = { 0.5 0.5 }  }
	}
	colored_emblem = {
		texture = "ce_anb_cog.dds"
		color1 = rgb { 167 90 148 }
		color2 = rgb { 167 90 148 }
		instance = { position = { 0.5 0.5 } scale = { 0.6 0.6 }  }
	}
}

k_carneter = {
	pattern = "pattern_horizontal_split_01.dds"
	color1 = "lorentish_green"
	color2 = "lorentish_green"
	colored_emblem = {
		texture = "ce_tree.dds"
		color1 = "lorentish_gold"
		color2 = "lorentish_gold"
	}
}

d_carneter = {
	pattern = "pattern_horizontal_split_01.dds"
	color1 = "lorentish_green"
	color2 = "lorentish_green"
	colored_emblem = {
		texture = "ce_tree.dds"
		color1 = "lorentish_gold"
		color2 = "lorentish_gold"
	}
}

c_carneter = {
	pattern = "pattern_horizontal_split_01.dds"
	color1 = "lorentish_green"
	color2 = "lorentish_green"
	colored_emblem = {
		texture = "ce_tree.dds"
		color1 = "lorentish_gold"
		color2 = "lorentish_gold"
	}
}

c_woodwell = {
	pattern = "pattern_chief.dds"
	color1 = "brown"
	color2 = "brown"
	colored_emblem = {
		texture = "ce_grape_tree.dds"
		color1 = "green"
		color2 = "green"
	}
}

c_ancards_crossing = {
	pattern = "pattern_chief.dds"
	color1 = "yellow_light"
	color2 = "damerian_white"
	colored_emblem = {
		texture = "ce_castle.dds"
		color1 = "grey"
		color2 = "damerian_white"
	}
}

b_timberfort = {
	pattern = "pattern_horizontal_split_01.dds"
	color1 = "orange"
	color2 = "orange"
	colored_emblem = {
		texture = "ce_axe.dds"
		color1 = "grey"
		color2 = "brown"
	}
}

e_alenic_empire_gawed = {
	pattern = "pattern_solid.dds"
	color1 = "gawedi_blue"
	color2 = "gawedi_blue"
	colored_emblem = {
		texture = "ce_crown_small.dds"
		color1 = rgb { 209 173 103 }
		color2 = rgb { 209 173 103 }
		instance = { position = { 0.431 0.100 } rotation = 12 scale = { 0.1 0.1 }  }
		instance = { position = { 0.569 0.100 } rotation = 348 scale = { 0.1 0.1 }  }		
	}
	colored_emblem = {
		texture = "ce_eagle_double.dds"
		color1 = rgb { 209 173 103 }
		color2 = "corvurian_red_light"
		instance = { position = { 0.5 0.5 } scale = { 0.9 1.0 }  }
	}
}

k_gawed = {
	pattern = "pattern_solid.dds"
	color1 = "gawedi_blue"
	color2 = "gawedi_blue"
	colored_emblem = {
		texture = "ce_eagle.dds"
		color1 = rgb { 209 173 103 }
		color2 = "corvurian_red_light"
		instance = { position = { 0.5 0.5 } scale = { 1.0 1.0 }  }
	}
}

d_gawed = {
	pattern = "pattern_solid.dds"
	color1 = "gawedi_blue"
	color2 = "gawedi_blue"
	colored_emblem = {
		texture = "ce_eagle.dds"
		color1 = rgb { 209 173 103 }
		color2 = "corvurian_red_light"
		instance = { position = { 0.5 0.5 } scale = { 1.0 1.0 }  }
	}
}

c_gaweton = {
	pattern = "pattern_solid.dds"
	color1 = "gawedi_blue"
	color2 = "gawedi_blue"
	colored_emblem = {
		texture = "ce_eagle.dds"
		color1 = rgb { 209 173 103 }
		color2 = "corvurian_red_light"
		instance = { position = { 0.5 0.5 } scale = { 1.0 1.0 }  }
	}
}

k_eaglecrest = {
	pattern = "pattern_solid.dds"
	color1 = "pearlsedge_blue"
	color2 = "pearlsedge_blue"
	colored_emblem = {
		texture = "ce_ordinary_chevron_5.dds"
		color1 = "grey"
		instance = { position = { 0.5 0.5 }	scale = { 1.0 1.0 }	}
	}
	colored_emblem = {
		texture = "ce_eagle.dds"
		color1 = rgb { 209 173 103 }
		color2 = "corvurian_red_light"
		instance = { position = { 0.25 0.25 } scale = { 0.35 0.35 }  }
		instance = { position = { 0.75 0.25 } scale = { 0.35 0.35 }  }
		instance = { position = { 0.5 0.75 } scale = { 0.35 0.35 }  }
	}
}

k_eborthil = {
	pattern = "pattern_solid.dds"
	color1 = "damerian_black"	
	color2 = "damerian_black"
	colored_emblem = {
		texture = "ce_waves_04.dds"
		color1 = rgb { 237 223 131 }
		color2 = rgb { 237 223 131 }
		instance = { position = { 0.5 0.76 } scale = { 1.5 1.5 }  }
		instance = { position = { 0.5 1.11 } scale = { 1.5 1.5 }  }
	}
	colored_emblem = {
		texture = "ce_waves_04.dds"
		color1 = rgb { 230 179 54 }
		color2 = rgb { 230 179 54 }
		instance = { position = { 0.5 0.85 } scale = { 1.5 1.5 }  }
	}
	colored_emblem = {
		texture = "ce_anb_dragon_rampant.dds"
		color1 = rgb { 79 139 159 }
		color2 = "white"
		instance = { position = { 0.5 0.45 } scale = { 0.7 0.7 }  }
	}
}

d_eborthil = {
	pattern = "pattern_solid.dds"
	color1 = "damerian_black"	
	color2 = "damerian_black"
	colored_emblem = {
		texture = "ce_waves_04.dds"
		color1 = rgb { 237 223 131 }
		color2 = rgb { 237 223 131 }
		instance = { position = { 0.5 0.76 } scale = { 1.5 1.5 }  }
		instance = { position = { 0.5 1.11 } scale = { 1.5 1.5 }  }
	}
	colored_emblem = {
		texture = "ce_waves_04.dds"
		color1 = rgb { 230 179 54 }
		color2 = rgb { 230 179 54 }
		instance = { position = { 0.5 0.85 } scale = { 1.5 1.5 }  }
	}
	colored_emblem = {
		texture = "ce_anb_dragon_rampant.dds"
		color1 = rgb { 79 139 159 }
		color2 = "white"
		instance = { position = { 0.5 0.45 } scale = { 0.7 0.7 }  }
	}
}

c_eborthil = {
	pattern = "pattern_solid.dds"
	color1 = "damerian_black"	
	color2 = "damerian_black"
	colored_emblem = {
		texture = "ce_waves_04.dds"
		color1 = rgb { 237 223 131 }
		color2 = rgb { 237 223 131 }
		instance = { position = { 0.5 0.76 } scale = { 1.5 1.5 }  }
		instance = { position = { 0.5 1.11 } scale = { 1.5 1.5 }  }
	}
	colored_emblem = {
		texture = "ce_waves_04.dds"
		color1 = rgb { 230 179 54 }
		color2 = rgb { 230 179 54 }
		instance = { position = { 0.5 0.85 } scale = { 1.5 1.5 }  }
	}
	colored_emblem = {
		texture = "ce_anb_dragon_rampant.dds"
		color1 = rgb { 79 139 159 }
		color2 = "white"
		instance = { position = { 0.5 0.45 } scale = { 0.7 0.7 }  }
	}
}

k_verne = {
	pattern = "pattern_solid.dds"
	color1 = rgb { 194 181 155 }	
	color2 = "damerian_blue"
	colored_emblem = {
		texture = "ce_wyvern.dds"
		color1 = rgb { 125 49 40 }
		color2 = "yellow"
		color3 = "yellow"
		instance = { position = { 0.5 0.5 } scale = { 0.9 0.9 }  }
	}
}

k_verne_dameria = {
	pattern = "pattern_solid.dds"
	color1 = rgb { 194 181 155 }	
	color2 = "damerian_blue"
	colored_emblem = {
		texture = "ce_mena_fess.dds"
		color1 = "damerian_blue"
		color2 = "damerian_blue"
		instance = { position = { 0.5 0.1 } scale = { 1.0 1.0 }  }
	}
	colored_emblem = {
		texture = "ce_anb_elvenized_moon.dds"
		color1 = "damerian_white"
		color2 = "damerian_white"
		instance = { position = { 0.2 0.15 } scale = { 0.2 0.2 }  }
		instance = { position = { 0.4 0.15 } scale = { 0.2 0.2 }  }
		instance = { position = { 0.6 0.15 } scale = { 0.2 0.2 }  }
		instance = { position = { 0.8 0.15 } scale = { 0.2 0.2 }  }
	}
	colored_emblem = {
		texture = "ce_wyvern.dds"
		color1 = rgb { 125 49 40 }
		color2 = "yellow"
		color3 = "yellow"
		instance = { position = { 0.5 0.55 } scale = { 0.7 0.7 }  }
	}
}

d_verne = {
	pattern = "pattern_solid.dds"
	color1 = rgb { 194 181 155 }	
	color2 = "damerian_blue"
	colored_emblem = {
		texture = "ce_wyvern.dds"
		color1 = rgb { 125 49 40 }
		color2 = "yellow"
		color3 = "yellow"
		instance = { position = { 0.5 0.5 } scale = { 0.9 0.9 }  }
	}
}

d_verne_dameria = {
	pattern = "pattern_solid.dds"
	color1 = rgb { 194 181 155 }	
	color2 = "damerian_blue"
	colored_emblem = {
		texture = "ce_mena_fess.dds"
		color1 = "damerian_blue"
		color2 = "damerian_blue"
		instance = { position = { 0.5 0.1 } scale = { 1.0 1.0 }  }
	}
	colored_emblem = {
		texture = "ce_anb_elvenized_moon.dds"
		color1 = "damerian_white"
		color2 = "damerian_white"
		instance = { position = { 0.2 0.15 } scale = { 0.2 0.2 }  }
		instance = { position = { 0.4 0.15 } scale = { 0.2 0.2 }  }
		instance = { position = { 0.6 0.15 } scale = { 0.2 0.2 }  }
		instance = { position = { 0.8 0.15 } scale = { 0.2 0.2 }  }
	}
	colored_emblem = {
		texture = "ce_wyvern.dds"
		color1 = rgb { 125 49 40 }
		color2 = "yellow"
		color3 = "yellow"
		instance = { position = { 0.5 0.55 } scale = { 0.7 0.7 }  }
	}
}

c_verne = {
	pattern = "pattern_solid.dds"
	color1 = rgb { 194 181 155 }	
	color2 = "damerian_blue"
	colored_emblem = {
		texture = "ce_wyvern.dds"
		color1 = rgb { 125 49 40 }
		color2 = "yellow"
		color3 = "yellow"
		instance = { position = { 0.5 0.5 } scale = { 0.9 0.9 }  }
	}
}

c_verne_dameria = {
	pattern = "pattern_solid.dds"
	color1 = rgb { 194 181 155 }	
	color2 = "damerian_blue"
	colored_emblem = {
		texture = "ce_mena_fess.dds"
		color1 = "damerian_blue"
		color2 = "damerian_blue"
		instance = { position = { 0.5 0.1 } scale = { 1.0 1.0 }  }
	}
	colored_emblem = {
		texture = "ce_anb_elvenized_moon.dds"
		color1 = "damerian_white"
		color2 = "damerian_white"
		instance = { position = { 0.2 0.15 } scale = { 0.2 0.2 }  }
		instance = { position = { 0.4 0.15 } scale = { 0.2 0.2 }  }
		instance = { position = { 0.6 0.15 } scale = { 0.2 0.2 }  }
		instance = { position = { 0.8 0.15 } scale = { 0.2 0.2 }  }
	}
	colored_emblem = {
		texture = "ce_wyvern.dds"
		color1 = rgb { 125 49 40 }
		color2 = "yellow"
		color3 = "yellow"
		instance = { position = { 0.5 0.55 } scale = { 0.7 0.7 }  }
	}
}

k_busilar = {
	pattern = "pattern_solid.dds"
	color1 = "damerian_white"
	color2 = "damerian_white"
	colored_emblem = {
		texture = "ce_mena_pale.dds"
		color1 = rgb { 214 89 42 }
		color2 = rgb { 214 89 42 }
		instance = { position = { 0.5 0.33 } scale = { 0.85 0.85 }  }
		instance = { position = { 0.5 0.66 } scale = { 0.85 0.85 }  }
	}
	colored_emblem = {
		texture = "ce_barrulets_2.dds"
		color1 = "yellow"
		color2 = "yellow"
		instance = { position = { 0.5 0.5 } scale = { 1.0 1.0 } rotation = 90   }
	}
	colored_emblem = {
		texture = "ce_lion_rampant_per_pale.dds"
		color1 = "grey"
		color2 = rgb { 80 80 80 }
		color3 = "damerian_black"
		instance = { position = { 0.5 0.2 } scale = { 0.33 0.33 }  }
		instance = { position = { 0.5 0.5 } scale = { 0.33 0.33 }  }
		instance = { position = { 0.5 0.8 } scale = { 0.33 0.33 }  }
	}
}

k_tretun = {
	pattern = "pattern_solid.dds"
	color1 = "orange"	
	color2 = "orange"
	colored_emblem = {
		texture = "ce_rook.dds"
		color1 = "damerian_white"
		color2 = "damerian_white"
		instance = { position = { 0.5 0.5 } scale = { 0.5 0.8 }  }
	}
}

d_tretun = {
	pattern = "pattern_solid.dds"
	color1 = "orange"	
	color2 = "orange"
	colored_emblem = {
		texture = "ce_rook.dds"
		color1 = "damerian_white"
		color2 = "damerian_white"
		instance = { position = { 0.5 0.5 } scale = { 0.5 0.8 }  }
	}
}

c_tretun = {
	pattern = "pattern_solid.dds"
	color1 = "orange"	
	color2 = "orange"
	colored_emblem = {
		texture = "ce_rook.dds"
		color1 = "damerian_white"
		color2 = "damerian_white"
		instance = { position = { 0.5 0.5 } scale = { 0.5 0.8 }  }
	}
}

d_roilsard = { 
	pattern = "pattern_solid.dds"
	color1 = "roilsardi_red"	
	color2 = "roilsardi_red"
	colored_emblem = {
		texture = "ce_anb_roilsardi_thorn.dds"
		color1 = "roilsardi_green"
		color2 = "roilsardi_green"
		instance = { position = { 0.5 0.5 }	scale = { 0.9 0.9 }	}
	}	
}

c_roilsard = { 
	pattern = "pattern_solid.dds"
	color1 = "roilsardi_red"	
	color2 = "roilsardi_red"
	colored_emblem = {
		texture = "ce_anb_roilsardi_thorn.dds"
		color1 = "roilsardi_green"
		color2 = "roilsardi_green"
		instance = { position = { 0.5 0.5 }	scale = { 0.9 0.9 }	}
	}	
}

c_saloren = { 
	pattern = "pattern_solid.dds"
	color1 = rgb { 244 132 114 }
	color2 = rgb { 244 132 114 }
	colored_emblem = {
		texture = "ce_anb_roilsardi_thorn.dds"
		color1 = "roilsardi_green"
		color2 = "roilsardi_green"
		instance = { position = { 0.5 0.5 }	scale = { 0.9 0.9 }	}
	}	
}

b_toarnaire = { 
	pattern = "pattern_solid.dds"
	color1 = "roilsardi_green"	
	color2 = "roilsardi_green"
	colored_emblem = {
		texture = "ce_anb_roilsardi_thorn.dds"
		color1 = rgb { 244 132 114 }
		color2 = rgb { 244 132 114 }
		instance = { position = { 0.5 0.5 }	scale = { 0.9 0.9 }	}
	}	
}

c_loopuis = { 
	pattern = "pattern_solid.dds"
	color1 = "roilsardi_green"	
	color2 = "roilsardi_green"
	colored_emblem = {
		texture = "ce_anb_roilsardi_thorn.dds"
		color1 = "blue"
		color2 = "blue"
		instance = { position = { 0.5 0.5 }	scale = { 0.9 0.9 }	}
	}	
}

c_vivinmar = { 
	pattern = "pattern_solid.dds"
	color1 = "corvurian_red_light"	
	color2 = "corvurian_red_light"
	colored_emblem = {
		texture = "ce_anb_roilsardi_thorn.dds"
		color1 = "black"
		color2 = "black"
		instance = { position = { 0.5 0.5 }	scale = { 0.9 0.9 }	}
	}	
}

d_tellum = {
	pattern = "pattern_solid.dds"
	color1 = rgb { 215 118 176 }
	color2 = rgb { 215 118 176 }
	colored_emblem = {
		texture = "ce_bell.dds"
		color1 = "lorentish_gold"
		color2 = "lorentish_gold"
		instance = { position = { 0.5 0.5 } scale = { 0.7 0.9 }  }
	}
}

c_tellum = {
	pattern = "pattern_solid.dds"
	color1 = rgb { 215 118 176 }
	color2 = rgb { 215 118 176 }
	colored_emblem = {
		texture = "ce_bell.dds"
		color1 = "lorentish_gold"
		color2 = "lorentish_gold"
		instance = { position = { 0.5 0.45 } scale = { 0.7 0.8 }  }
	}
}

k_damescrown = {
	pattern = "pattern_vertical_split_01.dds"
	color1 = "damerian_blue"
	color2 = "yellow"
	colored_emblem = {
		texture = "ce_crown.dds"
		color1 = "damerian_white"
		color2 = "damerian_white"
		instance = { position = { 0.5 0.35 } scale = { 0.35 0.35 }  }
	}
	colored_emblem = {
		texture = "ce_anb_elvenized_moon.dds"
		color1 = "damerian_white"
		color2 = "damerian_white"
		instance = { position = { 0.5 0.48 } scale = { 0.8 0.8 } rotation = -90 }
	}
}

d_damescrown = {
	pattern = "pattern_vertical_split_01.dds"
	color1 = "damerian_blue"
	color2 = "yellow"
	colored_emblem = {
		texture = "ce_crown.dds"
		color1 = "damerian_white"
		color2 = "damerian_white"
		instance = { position = { 0.5 0.35 } scale = { 0.35 0.35 }  }
	}
	colored_emblem = {
		texture = "ce_anb_elvenized_moon.dds"
		color1 = "damerian_white"
		color2 = "damerian_white"
		instance = { position = { 0.5 0.48 } scale = { 0.8 0.8 } rotation = -90 }
	}
}

c_damescrown = {
	pattern = "pattern_vertical_split_01.dds"
	color1 = "damerian_blue"
	color2 = "yellow"
	colored_emblem = {
		texture = "ce_crown.dds"
		color1 = "damerian_white"
		color2 = "damerian_white"
		instance = { position = { 0.5 0.35 } scale = { 0.35 0.35 }  }
	}
	colored_emblem = {
		texture = "ce_anb_elvenized_moon.dds"
		color1 = "damerian_white"
		color2 = "damerian_white"
		instance = { position = { 0.5 0.48 } scale = { 0.8 0.8 } rotation = -90 }
	}
}

k_wex = {
	pattern = "pattern_solid.dds"
	color1 = "wexonard_purple"
	color2 = "wexonard_purple"
	colored_emblem = {
		texture = "ce_anb_castanorian_citadel.dds"
		color1 = "white"
		color2 = "damerian_black"
		instance = { position = { 0.5 0.45 } scale = { 0.9 0.9 }  }
	}
}

d_wexhills = {
	pattern = "pattern_solid.dds"
	color1 = "wexonard_purple"
	color2 = "wexonard_purple"
	colored_emblem = {
		texture = "ce_circle.dds"
		color1 = "grey"
		color2 = "grey"
		instance = { position = { 0.5 1.06 } scale = { 1.2 1.2 }  }
	}
	colored_emblem = {
		texture = "ce_anb_castanorian_citadel.dds"
		color1 = "white"
		color2 = "damerian_black"
		instance = { position = { 0.5 0.45 } scale = { 0.9 0.9 }  }
	}
}

c_wexhills = {
	pattern = "pattern_solid.dds"
	color1 = "wexonard_purple"
	color2 = "wexonard_purple"
	colored_emblem = {
		texture = "ce_circle.dds"
		color1 = "grey"
		color2 = "grey"
		instance = { position = { 0.5 1.06 } scale = { 1.2 1.2 }  }
	}
	colored_emblem = {
		texture = "ce_anb_castanorian_citadel.dds"
		color1 = "white"
		color2 = "damerian_black"
		instance = { position = { 0.5 0.45 } scale = { 0.9 0.9 }  }
	}
}

k_ibevar = {
	pattern = "pattern_solid.dds"
	color1 = rgb { 210 237 246 }
	color2 = rgb { 210  237  246 }
	colored_emblem = {
		texture = "ce_anb_elvenized_moon.dds"
		color1 = rgb { 15  117  188 }
		color2 = rgb { 15  117  188 }
		instance = { position = { 0.5 0.5 } scale = { 0.8 0.8 } }
	}
}

d_ibevar = {
	pattern = "pattern_solid.dds"
	color1 = rgb { 210 237 246 }
	color2 = rgb { 210  237  246 }
	colored_emblem = {
		texture = "ce_anb_elvenized_moon.dds"
		color1 = rgb { 15  117  188 }
		color2 = rgb { 15  117  188 }
		instance = { position = { 0.5 0.5 } scale = { 0.8 0.8 } }
	}
}

c_ibevar = {
	pattern = "pattern_solid.dds"
	color1 = rgb { 210 237 246 }
	color2 = rgb { 210  237  246 }
	colored_emblem = {
		texture = "ce_anb_elvenized_moon.dds"
		color1 = rgb { 15  117  188 }
		color2 = rgb { 15  117  188 }
		instance = { position = { 0.5 0.5 } scale = { 0.8 0.8 } }
	}
}

e_castanor = {
	pattern = "pattern_solid.dds"
	color1 = "damerian_white"
	color2 = "damerian_white"
	colored_emblem = {
		texture = "ce_anb_dragon_rampant_border_01.dds"
		color1 = rgb { 172 180 196 }
		color2 = "corvurian_red_light"
		color3 = "blue_light"
		instance = { position = { 0.5 0.5 } scale = { -0.8 0.8 }  }
	}
}

e_black_castanor = {
	pattern = "pattern_solid.dds"
	color1 = "damerian_white"
	color2 = "damerian_white"
	colored_emblem = {
		texture = "ce_anb_dragon_rampant_border_02.dds"
		color1 = "damerian_black"
		color2 = rgb { 0 127 14 }
		instance = { position = { 0.5 0.5 } scale { -0.8 0.8}  }
	}
}

k_marrhold = {
	pattern = "pattern_solid.dds"
	color1 = rgb { 155 129 108 } #beige
	color2 = rgb { 182 151 126 } #beige
	colored_emblem = {
		texture = "ce_griffin_rampant.dds"
		color1 = "damerian_white"
		color2 = "orange"
		instance = { position = { 0.5 0.5 } scale = { 0.9 0.9 }  }
	}
}
